co\com\supermercado\modelo\dao\ClienteDAO.class
co\com\supermercado\vista\VistaClientes$1.class
co\com\supermercado\controlador\ControladorCliente.class
co\com\supermercado\vista\VistaClientes$3.class
co\com\supermercado\main\Main.class
co\com\supermercado\modelo\dao\ProfesionDAO.class
co\com\supermercado\modelo\dto\ProfesionDTO.class
co\com\supermercado\conexion\Conexion.class
co\com\supermercado\vista\VistaClientes$2.class
co\com\supermercado\modelo\dto\ClienteDTO.class
co\com\supermercado\vista\VistaClientes.class
co\com\supermercado\vista\VistaClientes$4.class
